Data Project - Stock Exchange Data
…
#Spread the index column
four_indices <- fullindex %>%
  filter(Index == c("NYA","IXIC","GSPTSE","N225"), Year<=2021, Year>=2000) %>% 
  select(Date, Index, Daily_Return_Perc.) %>% 
  spread(Index,Daily_Return_Perc.) %>% 
  mutate(var_GSPTSE = scale_level(GSPTSE),
         var_IXIC = scale_level(IXIC),
         var_N225 = scale_level(N225),
         var_NYA = scale_level(NYA)) %>% 
  arrange(desc(Date))

four_indices

## # A tibble: 4,047 x 9
##    Date       GSPTSE    IXIC    N225    NYA var_GSPTSE var_IXIC var_N225 var_NYA
##    <date>      <dbl>   <dbl>   <dbl>  <dbl>      <dbl>    <dbl>    <dbl>   <dbl>
##  1 2021-05-31 NA     NA      -0.993  NA         NA       NA        0.507  NA    
##  2 2021-05-28 NA      0.0907 NA      NA         NA        0.468   NA      NA    
##  3 2021-05-26  0.927 NA      NA      NA          0.685   NA       NA      NA    
##  4 2021-05-25 NA     NA       0.668  -0.452     NA       NA        0.608   0.376
##  5 2021-05-24 NA      1.41   NA      NA         NA        0.518   NA      NA    
##  6 2021-05-19 -0.462 NA      -1.28   -0.639      0.597   NA        0.490   0.365
##  7 2021-05-18 NA     -0.564  NA      NA         NA        0.444   NA      NA    
##  8 2021-05-13  0.147 NA      -2.49    0.864      0.635   NA        0.417   0.452
##  9 2021-05-12 NA     -2.67   NA      NA         NA        0.364   NA      NA    
## 10 2021-05-07  0.942 NA       0.0902  0.795      0.686   NA        0.573   0.448
## # ... with 4,037 more rows
…
